{
  "/CITM": {
     "target":  {
       "host": "localhost",
       "protocol": "http:",
       "port": 8080
     },
     "secure": true,
     "pathRewrite": {
      "^/": "/"
      },
     "changeOrigin": true,
     "logLevel": "debug"
  }
}
