<?xml version="1.0" standalone="no"?>
<!DOCTYPE svg PUBLIC "-//W3C//DTD SVG 1.1//EN" "http://www.w3.org/Graphics/SVG/1.1/DTD/svg11.dtd">
<svg xmlns="http://www.w3.org/2000/svg">
<metadata>Generated by Fontastic.me</metadata>
<defs>
<font id="untitled-font-2" horiz-adv-x="512">
<font-face font-family="untitled-font-2" units-per-em="512" ascent="480" descent="-32"/>
<missing-glyph horiz-adv-x="512" />

<glyph glyph-name="details" unicode="&#97;" d="M0 383l255 0 0-255-255 0z m305 0l206 0 0-25-206 0z m0-76l206 0 0-26-206 0z m0-77l206 0 0-25-206 0z m0-76l206 0 0-26-206 0z"/>
<glyph glyph-name="down" unicode="&#98;" d="M0 403l256-159 256 159 0-135-256-159-256 159z"/>
<glyph glyph-name="grid" unicode="&#99;" d="M0 379l121 0 0-98-121 0z m195 0l121 0 0-98-121 0z m195 0l121 0 0-98-121 0z m-390-148l121 0 0-98-121 0z m195 0l121 0 0-98-121 0z m195 0l121 0 0-98-121 0z"/>
<glyph glyph-name="heart" unicode="&#100;" d="M256 48c-135 136-256 148-256 289 0 71 57 128 128 128 71 0 128-65 128-65 0 0 57 65 128 65 71 0 128-57 128-128 0-141-120-153-256-289z"/>
<glyph glyph-name="heart-ol" unicode="&#101;" d="M384 431c52 0 95-42 95-94 0-75-40-104-112-155-34-24-71-51-111-87-40 36-77 63-111 87-72 51-111 80-111 155 0 52 42 94 94 94 54 0 102-53 103-53l25-29 25 29c1 0 49 53 103 53m0 34c-71 0-128-65-128-65 0 0-57 65-128 65-71 0-128-57-128-128 0-141 121-153 256-289 136 136 256 148 256 289 0 71-57 128-128 128z"/>
<glyph glyph-name="left" unicode="&#102;" d="M403 512l-159-256 159-256-135 0-159 256 159 256z"/>
<glyph glyph-name="notes" unicode="&#103;" d="M503 271l-51 48c-12 12-32 12-44 0 0 0 0 0 0 0-6-5-12-11-18-17-15-14-30-28-44-41-18-17-36-34-53-51-15-14-31-29-46-44-8-7-18-15-25-24-5-6-6-14-8-22-3-10-5-20-8-29-5-20-10-40-15-59 0-1-2-12-4-13 14 4 27 7 41 10 22 5 75 18 80 19 8 1 13 8 19 13 0 0 176 168 176 168 12 11 12 30 0 42m-270-143l69-66-65-15-21 20z m114 365l-4 0c-12 0-23-10-23-22l0-9-32 0 0 9c0 12-10 22-23 22l-4 0c-12 0-22-10-22-22l0-9-33 0 0 9c0 12-10 22-23 22l-4 0c-12 0-22-10-22-22l0-9-33 0 0 9c0 12-10 22-23 22l-4 0c-12 0-22-10-22-22l0-9-75 0 0-441 152 0 1 5 0 1 2 6 2 6 1 7c0 0 1 1 1 1 1 3 3 10-3 14-3 3-7 3-10 3-1 0-4 0-8 0-6 0-13 0-16 0-3 0-25 0-37 0-4 0-7 0-8 0-1 0-4 0-7 0l-8 0-7 0c-2 0-3 0-4 0-1 0-2 0-3 0l-3 0 0 355 30 0 0-9c0-12 10-22 22-22l4 0c13 0 23 10 23 22l0 9 33 0 0-9c0-12 10-22 22-22l4 0c13 0 23 10 23 22l0 9 33 0 0-9c0-12 10-22 22-22l4 0c13 0 23 10 23 22l0 9 32 0 0-9c0-12 11-22 23-22l4 0c12 0 22 10 22 22l0 9 1 0 26-24c0-4 0-6 0-8 0-3 0-5 0-11 0-1 0-2 0-2 0-5-1-10 3-15 2-2 5-6 9-8 0 0 3-1 10-1 4 0 8 0 11 1 1 0 4 2 6 4 3 3 4 7 5 12 1 4 1 8 0 11 0 2 0 3 0 4 1 4 1 4 1 4 0 1 0 1 0 5 0 2 0 3 0 4 0 3 0 5 0 7l0 1c0 3 0 8-3 13-2 3-5 5-7 6-1 1-2 2-2 2-2 2-5 4-7 6-2 2-3 4-5 5-4 4-8 8-12 11-4 4-7 7-11 10 0 0 0 1 0 1-3 3-5 5-9 5l-16 0 0 9c0 12-10 22-22 22"/>
<glyph glyph-name="right" unicode="&#104;" d="M244 512l159-256-159-256-135 0 159 256-159 256z"/>
<glyph glyph-name="up" unicode="&#105;" d="M512 109l-256 159-256-159 0 135 256 159 256-159z"/>
<glyph glyph-name="green" unicode="&#106;" d="M337 361c-57 38-154 50-226 149 0 0-66-188 55-306 87-85 170-74 170-74 0 0 44 84-160 237 0 0 291-104 164-300-28-44-53-66-53-66 24 12 51 32 67 51 57 68 117 217-17 309z"/>
<glyph glyph-name="hot" unicode="&#107;" d="M387 253c0-72-59-132-132-132-72 0-131 60-131 132 0 73 59 132 131 132 73 0 132-59 132-132z m-162 174l33 85 28-85z m0-340l33-85 28 85z m-140 136l-85 33 85 28z m340 0l85 33-85 28z m-312 133l-36 83 80-40z m241-240l83-37-40 80z m-195-3l-83-37 40 80z m240 240l37 83-80-40z"/>
<glyph glyph-name="hotjob" unicode="&#108;" d="M236 12c0 0-172 12-153 184 10 80 121 148 143 228 10 34 0 75-31 109 5-2 172-60 172-179 0-63-46-70-46-116 0-34 31-42 51-32 36 17 21 58 21 58 0 0 34-39 42-87l0-36c-8-44-39-92-131-134 0 0 72 95-10 160 0 0 10-22 0-46-10-24-31-48-63-31-46 26-29 133-29 133 0 0-92-99 34-211z"/>
<glyph glyph-name="pathways" unicode="&#109;" d="M277 71l-45 0 0 109c0 12-5 110 77 175 29 23 62 37 101 42l6-44c-30-4-57-15-79-33-67-54-60-136-60-137l0-1 0-111m113 235l119 61-113 73z m-157 15c-9 12-20 24-34 34-24 20-52 33-84 39l-2 46-113-73 119-61-2 42c20-6 39-15 54-28 18-14 31-30 40-46 5 15 12 31 22 47"/>
<glyph glyph-name="save" unicode="&#110;" d="M134 295l246 0-123-159z m83 184l0-233 78 0 0 233-78 0m-217-261c0-61 0-123 0-184 155 0 378 0 512 0 0 61 0 123 0 184l-76 0 0-109-361 0 0 109-75 0"/>
</font></defs></svg>
